{
  "sample_type": "carrot",
  "cup_wt": "0.832",
  "pre_weight": "7.463",
  "post_weight": "1.82",
  "sample_weight": "2.03",
  "antioxidants_blank":
    "{\"meta\":{\"filename\":\"measurement_2018-07-24T16:03:31.045-04:00.json\",\"scriptID\":\"calibrateBlankLocal-2-3\",\"date\":\"2018-07-24T16:03:31.048-04:00\"},\"data\":{\"device_battery\":\"95\",\"device_id\":\"00:00:00:02\",\"device_version\":\"1B\",\"device_firmware\":\"1.24\",\"calibration\":\"6\",\"median_370\":\"57.3558\",\"median_395\":\"70.1579\",\"median_420\":\"52.1759\",\"median_530\":\"81.0584\",\"median_605\":\"75.3637\",\"median_650\":\"86.7972\",\"median_730\":\"85.5672\",\"median_850\":\"90.658\",\"median_880\":\"93.7163\",\"median_940\":\"84.5763\",\"three_stdev_370\":\"0.0841369\",\"three_stdev_395\":\"0.0480469\",\"three_stdev_420\":\"0.0567823\",\"three_stdev_530\":\"0.0714197\",\"three_stdev_605\":\"0.0443072\",\"three_stdev_650\":\"0.0842526\",\"three_stdev_730\":\"0.054017\",\"three_stdev_850\":\"0.2134\",\"three_stdev_880\":\"0.0802908\",\"three_stdev_940\":\"0.0944646\",\"voltage_370\":\"8823.63\",\"voltage_395\":\"20874.2\",\"voltage_420\":\"25809.4\",\"voltage_530\":\"31377.1\",\"voltage_605\":\"28180.8\",\"voltage_650\":\"34195.1\",\"voltage_730\":\"34444.1\",\"voltage_850\":\"45340.7\",\"voltage_880\":\"44763.7\",\"voltage_940\":\"46381.5\",\"voltage_three_stdev_370\":\"19.0481\",\"voltage_three_stdev_395\":\"14.7191\",\"voltage_three_stdev_420\":\"21.7586\",\"voltage_three_stdev_530\":\"28.4915\",\"voltage_three_stdev_605\":\"21.422\",\"voltage_three_stdev_650\":\"11.3298\",\"voltage_three_stdev_730\":\"15.464\",\"voltage_three_stdev_850\":\"26.0166\",\"voltage_three_stdev_880\":\"32.723\",\"voltage_three_stdev_940\":\"17.5007\",\"temperature\":\"0\",\"humidity\":\"0\",\"pressure\":\"0\",\"voc\":\"0\"}}",
  "antioxidants":
    "{\"meta\":{\"filename\":\"measurement_2018-07-24T16:03:43.092-04:00.json\",\"scriptID\":\"standard-2-3\",\"date\":\"2018-07-24T16:03:43.095-04:00\"},\"data\":{\"device_battery\":\"95\",\"device_id\":\"00:00:00:02\",\"device_version\":\"1B\",\"device_firmware\":\"1.24\",\"calibration\":\"0\",\"median_370\":\"13.3313\",\"median_395\":\"13.2555\",\"median_420\":\"23.4616\",\"median_530\":\"16.8671\",\"median_605\":\"17.5766\",\"median_650\":\"12.6494\",\"median_730\":\"10.9054\",\"median_850\":\"14.2961\",\"median_880\":\"10.1345\",\"median_940\":\"12.9043\",\"three_stdev_370\":\"0.0756125\",\"three_stdev_395\":\"0.0647364\",\"three_stdev_420\":\"0.048353\",\"three_stdev_530\":\"0.0584874\",\"three_stdev_605\":\"0.0448174\",\"three_stdev_650\":\"0.0836689\",\"three_stdev_730\":\"0.0551324\",\"three_stdev_850\":\"0.185819\",\"three_stdev_880\":\"0.125397\",\"three_stdev_940\":\"0.106672\",\"spad_370\":\"29.3047\",\"spad_395\":\"14.3136\",\"spad_420\":\"23.2036\",\"spad_530\":\"-0.420905\",\"spad_605\":\"4.39982\",\"spad_650\":\"-1.84677\",\"spad_730\":\"0.960175\",\"spad_850\":\"-6.84547\",\"spad_880\":\"-5.8639\",\"spad_940\":\"0\",\"voltage_370\":\"8856.32\",\"voltage_395\":\"20888.1\",\"voltage_420\":\"25825.2\",\"voltage_530\":\"31385\",\"voltage_605\":\"28188.1\",\"voltage_650\":\"34193.7\",\"voltage_730\":\"34442.8\",\"voltage_850\":\"45348.6\",\"voltage_880\":\"44765.7\",\"voltage_940\":\"46383.8\",\"voltage_three_stdev_370\":\"24.0173\",\"voltage_three_stdev_395\":\"25.412\",\"voltage_three_stdev_420\":\"26.1969\",\"voltage_three_stdev_530\":\"13.5778\",\"voltage_three_stdev_605\":\"27.8666\",\"voltage_three_stdev_650\":\"20.9977\",\"voltage_three_stdev_730\":\"22.4405\",\"voltage_three_stdev_850\":\"36.7054\",\"voltage_three_stdev_880\":\"50.1476\",\"voltage_three_stdev_940\":\"17.9768\",\"polyphenols_estimate\":\"-0.055\",\"antioxidants_estimate\":\"-0.023\",\"protein_estimate\":\"-0.023\",\"temperature\":\"0\",\"humidity\":\"0\",\"pressure\":\"0\",\"voc\":\"0\"}}",
  "polyphenol_blank":
    "{\"meta\":{\"filename\":\"measurement_2018-07-24T16:03:58.215-04:00.json\",\"scriptID\":\"calibrateBlankLocal-2-3\",\"date\":\"2018-07-24T16:03:58.217-04:00\"},\"data\":{\"device_battery\":\"95\",\"device_id\":\"00:00:00:02\",\"device_version\":\"1B\",\"device_firmware\":\"1.24\",\"calibration\":\"6\",\"median_370\":\"57.4307\",\"median_395\":\"70.1435\",\"median_420\":\"52.1865\",\"median_530\":\"80.9925\",\"median_605\":\"75.3082\",\"median_650\":\"86.4288\",\"median_730\":\"85.4082\",\"median_850\":\"90.4405\",\"median_880\":\"93.4482\",\"median_940\":\"84.4707\",\"three_stdev_370\":\"0.071629\",\"three_stdev_395\":\"0.0579918\",\"three_stdev_420\":\"0.0509023\",\"three_stdev_530\":\"0.0650728\",\"three_stdev_605\":\"0.0593744\",\"three_stdev_650\":\"0.058203\",\"three_stdev_730\":\"0.0681603\",\"three_stdev_850\":\"0.227441\",\"three_stdev_880\":\"0.150054\",\"three_stdev_940\":\"0.149506\",\"voltage_370\":\"8872.02\",\"voltage_395\":\"20891.7\",\"voltage_420\":\"25832.5\",\"voltage_530\":\"31387.4\",\"voltage_605\":\"28188.5\",\"voltage_650\":\"34190.9\",\"voltage_730\":\"34446.2\",\"voltage_850\":\"45333.7\",\"voltage_880\":\"44766.6\",\"voltage_940\":\"46384.6\",\"voltage_three_stdev_370\":\"37.152\",\"voltage_three_stdev_395\":\"37.3354\",\"voltage_three_stdev_420\":\"42.061\",\"voltage_three_stdev_530\":\"25.5511\",\"voltage_three_stdev_605\":\"20.1555\",\"voltage_three_stdev_650\":\"21.0273\",\"voltage_three_stdev_730\":\"29.0871\",\"voltage_three_stdev_850\":\"40.596\",\"voltage_three_stdev_880\":\"36.4392\",\"voltage_three_stdev_940\":\"30.0718\",\"temperature\":\"0\",\"humidity\":\"0\",\"pressure\":\"0\",\"voc\":\"0\"}}",
  "polyphenols":
    "{\"meta\":{\"filename\":\"measurement_2018-07-24T16:04:09.427-04:00.json\",\"scriptID\":\"standard-2-3\",\"date\":\"2018-07-24T16:04:09.434-04:00\"},\"data\":{\"device_battery\":\"95\",\"device_id\":\"00:00:00:02\",\"device_version\":\"1B\",\"device_firmware\":\"1.24\",\"calibration\":\"0\",\"median_370\":\"13.3175\",\"median_395\":\"13.2443\",\"median_420\":\"23.4642\",\"median_530\":\"16.8803\",\"median_605\":\"17.5691\",\"median_650\":\"12.7175\",\"median_730\":\"10.9325\",\"median_850\":\"14.4462\",\"median_880\":\"10.2415\",\"median_940\":\"12.8972\",\"three_stdev_370\":\"0.073933\",\"three_stdev_395\":\"0.0552694\",\"three_stdev_420\":\"0.0436719\",\"three_stdev_530\":\"0.0518481\",\"three_stdev_605\":\"0.0538461\",\"three_stdev_650\":\"0.0782356\",\"three_stdev_730\":\"0.0634772\",\"three_stdev_850\":\"0.211786\",\"three_stdev_880\":\"0.162703\",\"three_stdev_940\":\"0.118391\",\"spad_370\":\"29.1204\",\"spad_395\":\"14.2347\",\"spad_420\":\"23.0809\",\"spad_530\":\"-0.47805\",\"spad_605\":\"4.35533\",\"spad_650\":\"-1.67361\",\"spad_730\":\"0.979758\",\"spad_850\":\"-6.89266\",\"spad_880\":\"-5.82654\",\"spad_940\":\"0\",\"voltage_370\":\"8880.45\",\"voltage_395\":\"20891.2\",\"voltage_420\":\"25830.7\",\"voltage_530\":\"31385.9\",\"voltage_605\":\"28192.3\",\"voltage_650\":\"34197.5\",\"voltage_730\":\"34450.2\",\"voltage_850\":\"45347.7\",\"voltage_880\":\"44769.2\",\"voltage_940\":\"46382.8\",\"voltage_three_stdev_370\":\"20.6278\",\"voltage_three_stdev_395\":\"28.6721\",\"voltage_three_stdev_420\":\"33.4399\",\"voltage_three_stdev_530\":\"37.3941\",\"voltage_three_stdev_605\":\"30.2667\",\"voltage_three_stdev_650\":\"21.4495\",\"voltage_three_stdev_730\":\"27.1105\",\"voltage_three_stdev_850\":\"34.8284\",\"voltage_three_stdev_880\":\"24.1042\",\"voltage_three_stdev_940\":\"20.523\",\"polyphenols_estimate\":\"-0.055\",\"antioxidants_estimate\":\"-0.023\",\"protein_estimate\":\"-0.023\",\"temperature\":\"0\",\"humidity\":\"0\",\"pressure\":\"0\",\"voc\":\"0\"}}",
  "protein_blank":
    "{\"meta\":{\"filename\":\"measurement_2018-07-24T16:04:21.838-04:00.json\",\"scriptID\":\"calibrateBlankLocal-2-3\",\"date\":\"2018-07-24T16:04:21.844-04:00\"},\"data\":{\"device_battery\":\"95\",\"device_id\":\"00:00:00:02\",\"device_version\":\"1B\",\"device_firmware\":\"1.24\",\"calibration\":\"6\",\"median_370\":\"57.4936\",\"median_395\":\"70.1088\",\"median_420\":\"52.2156\",\"median_530\":\"80.9617\",\"median_605\":\"75.266\",\"median_650\":\"86.1382\",\"median_730\":\"85.2938\",\"median_850\":\"90.425\",\"median_880\":\"93.3567\",\"median_940\":\"84.4331\",\"three_stdev_370\":\"0.080236\",\"three_stdev_395\":\"0.0494033\",\"three_stdev_420\":\"0.0563768\",\"three_stdev_530\":\"0.0576228\",\"three_stdev_605\":\"0.0446431\",\"three_stdev_650\":\"0.0797227\",\"three_stdev_730\":\"0.0658069\",\"three_stdev_850\":\"0.205743\",\"three_stdev_880\":\"0.166045\",\"three_stdev_940\":\"0.196518\",\"voltage_370\":\"8895.13\",\"voltage_395\":\"20894.2\",\"voltage_420\":\"25827\",\"voltage_530\":\"31386.1\",\"voltage_605\":\"28192.8\",\"voltage_650\":\"34199.9\",\"voltage_730\":\"34453.7\",\"voltage_850\":\"45350.5\",\"voltage_880\":\"44771.5\",\"voltage_940\":\"46389\",\"voltage_three_stdev_370\":\"24.3616\",\"voltage_three_stdev_395\":\"32.3539\",\"voltage_three_stdev_420\":\"23.1467\",\"voltage_three_stdev_530\":\"25.5344\",\"voltage_three_stdev_605\":\"41.7884\",\"voltage_three_stdev_650\":\"56.26\",\"voltage_three_stdev_730\":\"28.837\",\"voltage_three_stdev_850\":\"32.3727\",\"voltage_three_stdev_880\":\"39.3133\",\"voltage_three_stdev_940\":\"33.9016\",\"temperature\":\"0\",\"humidity\":\"0\",\"pressure\":\"0\",\"voc\":\"0\"}}",
  "protein":
    "{\"meta\":{\"filename\":\"measurement_2018-07-24T16:04:33.013-04:00.json\",\"scriptID\":\"standard-2-3\",\"date\":\"2018-07-24T16:04:33.017-04:00\"},\"data\":{\"device_battery\":\"95\",\"device_id\":\"00:00:00:02\",\"device_version\":\"1B\",\"device_firmware\":\"1.24\",\"calibration\":\"0\",\"median_370\":\"13.3251\",\"median_395\":\"13.264\",\"median_420\":\"23.4585\",\"median_530\":\"16.8673\",\"median_605\":\"17.5794\",\"median_650\":\"12.7781\",\"median_730\":\"10.9437\",\"median_850\":\"14.319\",\"median_880\":\"10.1795\",\"median_940\":\"12.8764\",\"three_stdev_370\":\"0.111366\",\"three_stdev_395\":\"0.0622135\",\"three_stdev_420\":\"0.069071\",\"three_stdev_530\":\"0.0827208\",\"three_stdev_605\":\"0.0479746\",\"three_stdev_650\":\"0.0770402\",\"three_stdev_730\":\"0.0580599\",\"three_stdev_850\":\"0.220834\",\"three_stdev_880\":\"0.151692\",\"three_stdev_940\":\"0.096177\",\"spad_370\":\"28.9753\",\"spad_395\":\"14.1956\",\"spad_420\":\"22.9974\",\"spad_530\":\"-0.492086\",\"spad_605\":\"4.33154\",\"spad_650\":\"-1.51429\",\"spad_730\":\"1.02311\",\"spad_850\":\"-6.82167\",\"spad_880\":\"-5.7446\",\"spad_940\":\"0\",\"voltage_370\":\"8905.45\",\"voltage_395\":\"20891\",\"voltage_420\":\"25829.1\",\"voltage_530\":\"31384.4\",\"voltage_605\":\"28192.6\",\"voltage_650\":\"34197.8\",\"voltage_730\":\"34453.2\",\"voltage_850\":\"45353.4\",\"voltage_880\":\"44779\",\"voltage_940\":\"46390.2\",\"voltage_three_stdev_370\":\"27.3135\",\"voltage_three_stdev_395\":\"17.7187\",\"voltage_three_stdev_420\":\"21.6954\",\"voltage_three_stdev_530\":\"22.7677\",\"voltage_three_stdev_605\":\"18.634\",\"voltage_three_stdev_650\":\"21.819\",\"voltage_three_stdev_730\":\"17.966\",\"voltage_three_stdev_850\":\"32.8573\",\"voltage_three_stdev_880\":\"35.5944\",\"voltage_three_stdev_940\":\"17.3486\",\"polyphenols_estimate\":\"-0.055\",\"antioxidants_estimate\":\"-0.023\",\"protein_estimate\":\"-0.023\",\"temperature\":\"0\",\"humidity\":\"0\",\"pressure\":\"0\",\"voc\":\"0\"}}"
}
