{
  "started": 1553877336029,
  "formId": "post-planting-form-1",
  "instanceId": "uuid:nnda097b-c2d8-445c-91ef-748f83be7deb",
  "description": "",
  "organizationId": "",
  "name": "Post Planting Form",
  "uploaded": false,
  "controls": [
    {
      "name": "/data/field_id:label",
      "label": "Enter the Field ID - must match the area name in the drop down menu EXACTLY",
      "hint": "farmos-area;choose farmOS field",
      "readOnly": false,
      "required": true
    },
    {
      "name": "/data/crop:label",
      "label": "Which crop are you filling this form out for?",
      "hint": "You need to fill out a separate survey for each crop",
      "readOnly": false,
      "required": true,
      "options": [
        {
          "value": "carrot",
          "text": "Carrot"
        },
        {
          "value": "spinach",
          "text": "Spinach"
        },
        {
          "value": "kale",
          "text": "Kale"
        },
        {
          "value": "lettuce",
          "text": "Lettuce"
        },
        {
          "value": "cherry_tomato",
          "text": "Cherry tomato"
        },
        {
          "value": "grape",
          "text": "Grape"
        },
        {
          "value": "other",
          "text": "Other"
        }
      ]
    },
    {
      "name": "/data/other_crop:label",
      "label": "Please enter the crop planted",
      "hint": "ontology;crops;pick crop",
      "readOnly": false,
      "required": false
    },
    {
      "name": "/data/grape_instructions:label",
      "label": "Fill out this form for the activities that you have completed for grapes THIS spring only. You only need to submit weekly management forms when you have done some management activity to your grapes.",
      "hint": "",
      "readOnly": true,
      "required": false
    },
    {
      "name": "/data/planting_date_grape:label",
      "label": "Month and Year that grapes were planted.",
      "hint": "",
      "readOnly": false,
      "required": false
    },
    {
      "name": "/data/submit_rfc:label",
      "label": "Will you submit samples from this planting to the RFC lab as part of the Farm Partners or NOFA programs?",
      "hint": "",
      "readOnly": false,
      "required": false,
      "options": [
        {
          "value": "yes",
          "text": "yes"
        },
        {
          "value": "no",
          "text": "no"
        }
      ]
    },
    {
      "name": "/data/general_management:label",
      "label": " Which best describes the general management for this field?",
      "hint": "",
      "readOnly": false,
      "required": true,
      "options": [
        {
          "value": "organic",
          "text": "Certified Organic"
        },
        {
          "value": "organic_not_certified",
          "text": "Organic (not certified)"
        },
        {
          "value": "biodynamic",
          "text": "Biodynamic"
        },
        {
          "value": "other",
          "text": "None of these options"
        }
      ]
    },
    {
      "name": "/data/irrigation_source:label",
      "label": "If you irrigate, which best describes the water source used for irrigation?",
      "hint": "Using a watering can counts as irrigation",
      "readOnly": false,
      "required": true,
      "options": [
        {
          "value": "chlorinated",
          "text": "Chlorinated water source"
        },
        {
          "value": "well",
          "text": "Well water"
        },
        {
          "value": "surface",
          "text": "Surface water"
        },
        {
          "value": "none",
          "text": "I do not irrigate"
        },
        {
          "value": "other",
          "text": "Other"
        }
      ]
    },
    {
      "name": "/data/land_prep_method:label",
      "label": "For this crop, how did you prepare your field/seed bed for planting?",
      "hint": "",
      "readOnly": false,
      "required": true,
      "options": [
        {
          "value": "tillage",
          "text": "Tillage"
        },
        {
          "value": "sheet_mulching",
          "text": "Sheet mulching"
        },
        {
          "value": "solarization",
          "text": "Solarization/Occultation"
        },
        {
          "value": "broadforking",
          "text": "Broadforking"
        },
        {
          "value": "notill_chem",
          "text": "No-till with chemical weed control"
        },
        {
          "value": "other",
          "text": "Other"
        },
        {
          "value": "none",
          "text": "None - for perrenial crops"
        }
      ]
    },
    {
      "name": "/data/herbicide_name:label",
      "label": "Name of herbicide applied",
      "hint": "If multiple herbicides were used, use comma to seperate different herbicides",
      "readOnly": false,
      "required": false
    },
    {
      "name": "/data/herbicide_rate:label",
      "label": "Application rate (gallons/acre)",
      "hint": "",
      "readOnly": false,
      "required": false
    },
    {
      "name": "/data/land_prep_other:label",
      "label": "Please describe method of land preparation",
      "hint": "",
      "readOnly": false,
      "required": false
    },
    {
      "name": "/data/tillage/type_1:label",
      "label": "1st tillage operation: Choose a tillage operation.",
      "hint": "ontology;tillage;begin typing to refine list",
      "readOnly": false,
      "required": false
    },
    {
      "name": "/data/tillage/date_1:label",
      "label": "Estimated date of tillage",
      "hint": "",
      "readOnly": false,
      "required": false
    },
    {
      "name": "/data/tillage/depth_1:label",
      "label": "Depth of tillage",
      "hint": "in inches",
      "readOnly": false,
      "required": false
    },
    {
      "name": "/data/tillage/tillage_2:label",
      "label": "Did you perform a 2nd tillage?",
      "hint": "",
      "readOnly": false,
      "required": false,
      "options": [
        {
          "value": "Yes",
          "text": "Yes"
        },
        {
          "value": "No",
          "text": "No"
        }
      ]
    },
    {
      "name": "/data/tillage/type_2:label",
      "label": "2nd tillage operation: Choose a tillage",
      "hint": "ontology;tillage;begin typing to refine list",
      "readOnly": false,
      "required": false
    },
    {
      "name": "/data/tillage/date_2:label",
      "label": "Estimated date of 2nd tillage",
      "hint": "",
      "readOnly": false,
      "required": false
    },
    {
      "name": "/data/tillage/depth_2:label",
      "label": "Depth of 2nd tillage",
      "hint": "in inches",
      "readOnly": false,
      "required": false
    },
    {
      "name": "/data/tillage/tillage_3:label",
      "label": "Did you perform a 3rd tillage?",
      "hint": "",
      "readOnly": false,
      "required": false,
      "options": [
        {
          "value": "Yes",
          "text": "Yes"
        },
        {
          "value": "No",
          "text": "No"
        }
      ]
    },
    {
      "name": "/data/tillage/type_3:label",
      "label": "3rd tillage operation: Choose a tillage",
      "hint": "ontology;tillage;begin typing to refine list",
      "readOnly": false,
      "required": false
    },
    {
      "name": "/data/tillage/date_3:label",
      "label": "Estimated date of 3rd tillage",
      "hint": "",
      "readOnly": false,
      "required": false
    },
    {
      "name": "/data/tillage/depth_3:label",
      "label": "Depth of 3rd tillage",
      "hint": "in inches",
      "readOnly": false,
      "required": false
    },
    {
      "name": "/data/mulch_question:label",
      "label": "Did you use mulch in this field?",
      "hint": "This only includes sheet mulch IF most of the mulch remained on the field at/after planting",
      "readOnly": false,
      "required": true,
      "options": [
        {
          "value": "Yes",
          "text": "Yes"
        },
        {
          "value": "No",
          "text": "No"
        }
      ]
    },
    {
      "name": "/data/mulch/mulch_type_1:label",
      "label": "What type of mulch was added?",
      "hint": "",
      "readOnly": false,
      "required": false,
      "options": [
        {
          "value": "plastic",
          "text": "Plastic"
        },
        {
          "value": "wood_chips",
          "text": "Wood chips"
        },
        {
          "value": "straw_hay",
          "text": "Straw/Hay"
        },
        {
          "value": "leaves",
          "text": "Leaves/leaf litter"
        },
        {
          "value": "cardboard",
          "text": "Cardboard"
        },
        {
          "value": "other",
          "text": "Other"
        }
      ]
    },
    {
      "name": "/data/mulch/mulch_other_1:label",
      "label": "Describe the mulch that was used",
      "hint": "",
      "readOnly": false,
      "required": false
    },
    {
      "name": "/data/mulch/mulch_depth_1:label",
      "label": "If applicable, amount of mulch added?",
      "hint": "in inches",
      "readOnly": false,
      "required": false
    },
    {
      "name": "/data/mulch/mulch_date_1:label",
      "label": "Estimated date that mulch was added",
      "hint": "",
      "readOnly": false,
      "required": false
    },
    {
      "name": "/data/mulch/mulch_2:label",
      "label": "Did you add a 2nd type of mulch?",
      "hint": "",
      "readOnly": false,
      "required": false,
      "options": [
        {
          "value": "yes",
          "text": "Yes"
        },
        {
          "value": "no",
          "text": "No"
        }
      ]
    },
    {
      "name": "/data/mulch/mulch_type_2:label",
      "label": "What type of mulch was added?",
      "hint": "",
      "readOnly": false,
      "required": false,
      "options": [
        {
          "value": "plastic",
          "text": "Plastic"
        },
        {
          "value": "wood_chips",
          "text": "Wood chips"
        },
        {
          "value": "straw_hay",
          "text": "Straw/Hay"
        },
        {
          "value": "leaves",
          "text": "Leaves/leaf litter"
        },
        {
          "value": "cardboard",
          "text": "Cardboard"
        },
        {
          "value": "other",
          "text": "Other"
        }
      ]
    },
    {
      "name": "/data/mulch/mulch_other_2:label",
      "label": "Describe the mulch that was used",
      "hint": "",
      "readOnly": false,
      "required": false
    },
    {
      "name": "/data/mulch/mulch_depth_2:label",
      "label": "If applicable, amount of mulch added?",
      "hint": "in inches",
      "readOnly": false,
      "required": false
    },
    {
      "name": "/data/mulch/mulch_date_2:label",
      "label": "Estimated date that mulch was added",
      "hint": "",
      "readOnly": false,
      "required": false
    },
    {
      "name": "/data/planting_date:label",
      "label": "Date that the crop was planted OR transplanted into the field",
      "hint": "",
      "readOnly": false,
      "required": false
    },
    {
      "name": "/data/transplanting_question:label",
      "label": "Did you transplant this crop?",
      "hint": "",
      "readOnly": false,
      "required": false,
      "options": [
        {
          "value": "Yes",
          "text": "Yes"
        },
        {
          "value": "No",
          "text": "No"
        }
      ]
    },
    {
      "name": "/data/transplanting/potting_soil_days:label",
      "label": "How many days was the crop was in potting soil prior to planting in the field?",
      "hint": "",
      "readOnly": false,
      "required": false
    },
    {
      "name": "/data/transplanting/potting_soil_brand:label",
      "label": "Brand/source of potting soil used",
      "hint": "",
      "readOnly": false,
      "required": false
    },
    {
      "name": "/data/transplanting/seedling_tray_type:label",
      "label": "Type of seedling tray",
      "hint": "",
      "readOnly": false,
      "required": false,
      "options": [
        {
          "value": "open",
          "text": "Open Tray"
        },
        {
          "value": "cell",
          "text": "Cell tray"
        },
        {
          "value": "paper_pot",
          "text": "Paper pot transplanting"
        },
        {
          "value": "soil_blocks",
          "text": "Soil blocks"
        }
      ]
    },
    {
      "name": "/data/transplanting/cell_number:label",
      "label": "How many cells/tray?",
      "hint": "",
      "readOnly": false,
      "required": false
    },
    {
      "name": "/data/transplanting/lighting:label",
      "label": "Were seedlings propagated in artificial lighting?",
      "hint": "",
      "readOnly": false,
      "required": false,
      "options": [
        {
          "value": "yes",
          "text": "yes"
        },
        {
          "value": "some",
          "text": "for some of the time"
        },
        {
          "value": "no",
          "text": "no"
        }
      ]
    },
    {
      "name": "/data/transplanting/climate:label",
      "label": "Were seedlings propagated in a climate controlled space?",
      "hint": "",
      "readOnly": false,
      "required": false,
      "options": [
        {
          "value": "yes",
          "text": "yes"
        },
        {
          "value": "some",
          "text": "for some of the time"
        },
        {
          "value": "no",
          "text": "no"
        }
      ]
    },
    {
      "name": "/data/transplanting/seedling_treatment:label",
      "label": "Treatments applied to the seedlings while in trays",
      "hint": "Check any that apply",
      "readOnly": false,
      "required": false,
      "options": [
        {
          "value": "inoculum",
          "text": "Inoculum"
        },
        {
          "value": "foliar_spray",
          "text": "Foliar spray"
        },
        {
          "value": "drench",
          "text": "Drench"
        },
        {
          "value": "kelp",
          "text": "Kelp"
        },
        {
          "value": "other",
          "text": "Other"
        },
        {
          "value": "none",
          "text": "None"
        }
      ]
    },
    {
      "name": "/data/transplanting/seedling_treatment_other:label",
      "label": "If other, enter the treatment here",
      "hint": "",
      "readOnly": false,
      "required": false
    },
    {
      "name": "/data/transplanting/seedling_treatment_date:label",
      "label": "Date of seedling treatment",
      "hint": "",
      "readOnly": false,
      "required": false
    },
    {
      "name": "/data/transplanting/seedling_treatment_name:label",
      "label": "Brand/source of seedling treatment",
      "hint": "",
      "readOnly": false,
      "required": false
    },
    {
      "name": "/data/lime_question:label",
      "label": "Did you add lime before, at, or immediately after planting?",
      "hint": "",
      "readOnly": false,
      "required": true,
      "options": [
        {
          "value": "Yes",
          "text": "Yes"
        },
        {
          "value": "No",
          "text": "No"
        }
      ]
    },
    {
      "name": "/data/lime/rate:label",
      "label": "How much lime/limestone was applied?",
      "hint": "lbs/acre",
      "readOnly": false,
      "required": false
    },
    {
      "name": "/data/lime/lime_date:label",
      "label": "Date of lime/limestone application",
      "hint": "",
      "readOnly": false,
      "required": false
    },
    {
      "name": "/data/amendments_question:label",
      "label": "Did you add amendments or fertilizer to the participating crop?",
      "hint": "Either before, at, or immediately following planting",
      "readOnly": false,
      "required": true,
      "options": [
        {
          "value": "Yes",
          "text": "Yes"
        },
        {
          "value": "No",
          "text": "No"
        }
      ]
    },
    {
      "name": "/data/amendments/amendment_type_1:label",
      "label": "Which of the following best describes the type of the 1st amendment added?",
      "hint": "",
      "readOnly": false,
      "required": false,
      "options": [
        {
          "value": "compost",
          "text": "Compost"
        },
        {
          "value": "compost_tea",
          "text": "Compost tea"
        },
        {
          "value": "inoculant",
          "text": "Inoculant"
        },
        {
          "value": "foliar_sprays",
          "text": "Foliar spray"
        },
        {
          "value": "org_fertilizer",
          "text": "Organic fertilizer"
        },
        {
          "value": "synth_fertilizer",
          "text": "Synthetic fertilizer"
        },
        {
          "value": "biostimulants",
          "text": "Biostimulants"
        },
        {
          "value": "other",
          "text": "Other"
        }
      ]
    },
    {
      "name": "/data/amendments/name_1:label",
      "label": "Name/Brand/Source of amendment/fertilizer",
      "hint": "",
      "readOnly": false,
      "required": false
    },
    {
      "name": "/data/amendments/amendment_date_1:label",
      "label": "Date applied",
      "hint": "",
      "readOnly": false,
      "required": false
    },
    {
      "name": "/data/amendments/method_1:label",
      "label": "Method of application",
      "hint": "",
      "readOnly": false,
      "required": false,
      "options": [
        {
          "value": "broadcast_surface",
          "text": "Broadcast - Surface"
        },
        {
          "value": "broadcast_incorporated",
          "text": "Broadcast - Incorporated"
        },
        {
          "value": "banded",
          "text": "Banded"
        },
        {
          "value": "topdress",
          "text": "Topdress"
        },
        {
          "value": "sidedress",
          "text": "Sidedress"
        },
        {
          "value": "seed_placement",
          "text": "Seed Placement"
        },
        {
          "value": "foliar",
          "text": "Foliar"
        },
        {
          "value": "injection",
          "text": "Injection"
        },
        {
          "value": "fertigation",
          "text": "Fertigation"
        }
      ]
    },
    {
      "name": "/data/amendments/nutrients_1:label",
      "label": "Which nutrients did you apply with this amendment/fertilizer?",
      "hint": "Select all that apply",
      "readOnly": false,
      "required": false,
      "options": [
        {
          "value": "unknown",
          "text": "Not known"
        },
        {
          "value": "N",
          "text": "N"
        },
        {
          "value": "P",
          "text": "P"
        },
        {
          "value": "K",
          "text": "K"
        },
        {
          "value": "Ca",
          "text": "Ca (not limestone/lime)"
        },
        {
          "value": "Mg",
          "text": "Mg (not limestone/lime)"
        },
        {
          "value": "B",
          "text": "B"
        },
        {
          "value": "Cu",
          "text": "Cu"
        },
        {
          "value": "Mn",
          "text": "Mn"
        },
        {
          "value": "Zn",
          "text": "Zn"
        },
        {
          "value": "other",
          "text": "Other"
        }
      ]
    },
    {
      "name": "/data/amendments/n_1:label",
      "label": "N (lbs per acre)",
      "hint": "",
      "readOnly": false,
      "required": false
    },
    {
      "name": "/data/amendments/p_1:label",
      "label": "P (lbs per acre)",
      "hint": "",
      "readOnly": false,
      "required": false
    },
    {
      "name": "/data/amendments/k_1:label",
      "label": "K (lbs per acre)",
      "hint": "",
      "readOnly": false,
      "required": false
    },
    {
      "name": "/data/amendments/nutrients_trace_1:label",
      "label": "Other trace minerals added",
      "hint": "Use a comma to separate different trace minerals",
      "readOnly": false,
      "required": false
    },
    {
      "name": "/data/amendments/amendment_2:label",
      "label": "Did you add a 2nd amendment/fertilizer?",
      "hint": "",
      "readOnly": false,
      "required": false,
      "options": [
        {
          "value": "Yes",
          "text": "Yes"
        },
        {
          "value": "No",
          "text": "No"
        }
      ]
    },
    {
      "name": "/data/amendments/amendment_type_2:label",
      "label": "Which of the following best describes the type of the 2nd amendment added?",
      "hint": "",
      "readOnly": false,
      "required": false,
      "options": [
        {
          "value": "compost",
          "text": "Compost"
        },
        {
          "value": "compost_tea",
          "text": "Compost tea"
        },
        {
          "value": "inoculant",
          "text": "Inoculant"
        },
        {
          "value": "foliar_spray",
          "text": "Foliar spray"
        },
        {
          "value": "organic_fertilizer",
          "text": "Organic fertilizer"
        },
        {
          "value": "synthetic_fertilizer",
          "text": "Synthetic fertilizer"
        },
        {
          "value": "biostimulants",
          "text": "Biostimulants"
        },
        {
          "value": "other",
          "text": "Other"
        }
      ]
    },
    {
      "name": "/data/amendments/name_2:label",
      "label": "Name/Brand/Source of 2nd amendment/fertilizer",
      "hint": "",
      "readOnly": false,
      "required": false
    },
    {
      "name": "/data/amendments/amendment_date_2:label",
      "label": "Date applied",
      "hint": "",
      "readOnly": false,
      "required": false
    },
    {
      "name": "/data/amendments/method_2:label",
      "label": "Method of application",
      "hint": "",
      "readOnly": false,
      "required": false,
      "options": [
        {
          "value": "Broadcast_Surface",
          "text": "Broadcast - Surface"
        },
        {
          "value": "Broadcast_Incorporated",
          "text": "Broadcast - Incorporated"
        },
        {
          "value": "Banded",
          "text": "Banded"
        },
        {
          "value": "Topdress",
          "text": "Topdress"
        },
        {
          "value": "Sidedress",
          "text": "Sidedress"
        },
        {
          "value": "Seed_Placement",
          "text": "Seed Placement"
        },
        {
          "value": "Foliar",
          "text": "Foliar"
        },
        {
          "value": "Injection",
          "text": "Injection"
        },
        {
          "value": "Fertigation",
          "text": "Fertigation"
        }
      ]
    },
    {
      "name": "/data/amendments/nutrients_2:label",
      "label": "Which nutrients did you apply with this amendment/fertilizer?",
      "hint": "Select all that apply",
      "readOnly": false,
      "required": false,
      "options": [
        {
          "value": "unknown",
          "text": "Not known"
        },
        {
          "value": "N",
          "text": "N"
        },
        {
          "value": "P",
          "text": "P"
        },
        {
          "value": "K",
          "text": "K"
        },
        {
          "value": "Ca",
          "text": "Ca (not limestone/lime)"
        },
        {
          "value": "Mg",
          "text": "Mg (not limestone/lime)"
        },
        {
          "value": "B",
          "text": "B"
        },
        {
          "value": "Cu",
          "text": "Cu"
        },
        {
          "value": "Mn",
          "text": "Mn"
        },
        {
          "value": "Zn",
          "text": "Zn"
        },
        {
          "value": "other",
          "text": "Other"
        }
      ]
    },
    {
      "name": "/data/amendments/n_2:label",
      "label": "N (lbs per acre)",
      "hint": "",
      "readOnly": false,
      "required": false
    },
    {
      "name": "/data/amendments/p_2:label",
      "label": "P (lbs per acre)",
      "hint": "",
      "readOnly": false,
      "required": false
    },
    {
      "name": "/data/amendments/k_2:label",
      "label": "K (lbs per acre)",
      "hint": "Optional",
      "readOnly": false,
      "required": false
    },
    {
      "name": "/data/amendments/nutrients_trace_2:label",
      "label": "Other trace minerals added",
      "hint": "Use a comma to separate different trace minerals",
      "readOnly": false,
      "required": false
    },
    {
      "name": "/data/history_info:label",
      "label": "The next set of question are about the state of the field before this planting",
      "hint": "for example, fallow, planted cash crop / cover crop, etc.",
      "readOnly": true,
      "required": false
    },
    {
      "name": "/data/history_1/use:label",
      "label": "How was the field used last year?",
      "hint": "Check all that apply",
      "readOnly": false,
      "required": false,
      "options": [
        {
          "value": "cash_crop",
          "text": "cash crop"
        },
        {
          "value": "cover_crop",
          "text": "cover crop"
        },
        {
          "value": "pastured",
          "text": "pastured"
        },
        {
          "value": "fallow",
          "text": "fallow (all year)"
        },
        {
          "value": "other",
          "text": "other"
        }
      ]
    },
    {
      "name": "/data/history_1/cash_crop1:label",
      "label": "What kind of cash crop?",
      "hint": "ontology;crops;choose a crop",
      "readOnly": false,
      "required": false
    },
    {
      "name": "/data/history_1/cash_crop2:label",
      "label": "If more than one, what other kind of cash crop?",
      "hint": "ontology;crops;choose a crop",
      "readOnly": false,
      "required": false
    },
    {
      "name": "/data/history_1/cover_crop:label",
      "label": "What kind of cover crops?",
      "hint": "Check all that apply",
      "readOnly": false,
      "required": false,
      "options": [
        {
          "value": "grasses",
          "text": "Grasses"
        },
        {
          "value": "legumes",
          "text": "Legumes"
        },
        {
          "value": "brassicas",
          "text": "Brassicas"
        },
        {
          "value": "non-legume_broadleaves",
          "text": "Non-legume broadleaves"
        },
        {
          "value": "3_cover_mix",
          "text": "2-4 cover crop species mix"
        },
        {
          "value": "8_cover_mix",
          "text": "5-12 cover crop species mix"
        },
        {
          "value": "12_cover_mix",
          "text": "12+ cover crop species mix"
        },
        {
          "value": "none",
          "text": "None"
        }
      ]
    },
    {
      "name": "/data/history_1/pastured:label",
      "label": "What kind of animals pastured?",
      "hint": "Check all that apply",
      "readOnly": false,
      "required": false,
      "options": [
        {
          "value": "cows",
          "text": "cows"
        },
        {
          "value": "chickens",
          "text": "chickens"
        },
        {
          "value": "pigs",
          "text": "pigs"
        },
        {
          "value": "sheep",
          "text": "sheep"
        },
        {
          "value": "goats",
          "text": "goats"
        },
        {
          "value": "other",
          "text": "other"
        }
      ]
    },
    {
      "name": "/data/history_1/other:label",
      "label": "Describe the use of the field (if other)",
      "hint": "",
      "readOnly": false,
      "required": false
    },
    {
      "name": "/data/history_2/use_2:label",
      "label": "How was the field used 2 years ago?",
      "hint": "Check all that apply",
      "readOnly": false,
      "required": false,
      "options": [
        {
          "value": "cash_crop",
          "text": "cash crop"
        },
        {
          "value": "cover_crop",
          "text": "cover crop"
        },
        {
          "value": "pastured",
          "text": "pastured"
        },
        {
          "value": "fallow",
          "text": "fallow (all year)"
        },
        {
          "value": "other",
          "text": "other"
        }
      ]
    },
    {
      "name": "/data/history_2/cash_crop1_2:label",
      "label": "What kind of cash crop?",
      "hint": "ontology;crops;pick crop",
      "readOnly": false,
      "required": false
    },
    {
      "name": "/data/history_2/cash_crop2_2:label",
      "label": "If more than one, what other kind of cash crop?",
      "hint": "ontology;crops;pick crop",
      "readOnly": false,
      "required": false
    },
    {
      "name": "/data/history_2/cover_crop_2:label",
      "label": "What kind of cover crops?",
      "hint": "Check all that apply",
      "readOnly": false,
      "required": false,
      "options": [
        {
          "value": "grasses",
          "text": "Grasses"
        },
        {
          "value": "legumes",
          "text": "Legumes"
        },
        {
          "value": "brassicas",
          "text": "Brassicas"
        },
        {
          "value": "non-legume_broadleaves",
          "text": "Non-legume broadleaves"
        },
        {
          "value": "3_cover_mix",
          "text": "2-4 cover crop species mix"
        },
        {
          "value": "8_cover_mix",
          "text": "5-12 cover crop species mix"
        },
        {
          "value": "12_cover_mix",
          "text": "12+ cover crop species mix"
        },
        {
          "value": "none",
          "text": "None"
        }
      ]
    },
    {
      "name": "/data/history_2/pastured_2:label",
      "label": "What kind of animals pastured?",
      "hint": "Check all that apply",
      "readOnly": false,
      "required": false,
      "options": [
        {
          "value": "cows",
          "text": "cows"
        },
        {
          "value": "chickens",
          "text": "chickens"
        },
        {
          "value": "pigs",
          "text": "pigs"
        },
        {
          "value": "sheep",
          "text": "sheep"
        },
        {
          "value": "goats",
          "text": "goats"
        },
        {
          "value": "other",
          "text": "other"
        }
      ]
    },
    {
      "name": "/data/history_2/other_2:label",
      "label": "Describe the use of the field (if other)",
      "hint": "",
      "readOnly": false,
      "required": false
    },
    {
      "name": "/data/farmos_group/error_check:label",
      "label": "Error Check",
      "hint": "Check survey data before submitting;post-planting-error-check",
      "readOnly": false,
      "required": false
    },
    {
      "name": "/data/farmos_group/farmos_submit:label",
      "label": "Submit to farmOS",
      "hint": "Submit data in form to your farmOS instance.  Go to main menu then profile to view and select farmOS instance;post-planting-farmos-submit-v2",
      "readOnly": false,
      "required": false
    },
    {
      "name": "/data/thanks:label",
      "label": "Thanks - Almost done!",
      "hint": "Select NEXT and then SUBMIT. If you need to fill out another survey look for the 'NEXT SURVEY' button in the upper right corner of the app after this survey has been submitted.",
      "readOnly": true,
      "required": false
    }
  ]
}
