{
  "respiration_baseline":
    "{\"meta\":{\"filename\":\"measurement_2018-07-12T15:59:34.303-04:00.json\",\"scriptID\":\"carbon-mineralization-syringe2\",\"date\":\"2018-07-12T15:59:34.305-04:00\"},\"data\":{\"max_co2\":\"945\",\"min_co2\":\"847\"}}",
  "respiration_24":
    "{\"meta\":{\"filename\":\"measurement_2018-07-12T16:19:34.563-04:00.json\",\"scriptID\":\"carbon-mineralization-syringe2\",\"date\":\"2018-07-12T16:19:34.566-04:00\"},\"data\":{\"max_co2\":\"2399\",\"min_co2\":\"1278\"}}"
}
